{
    "KPlugin": {
        "Description": "Quick document switching with Alt+Tab behavior",
        "Description[az]": "Alt+Tab ilə sənədləri sürətlə dəyişdirmək",
        "Description[bg]": "Бързо превключване на документи с комбинацията Alt+Tab",
        "Description[ca@valencia]": "Canvia ràpidament de document amb el comportament d'Alt+Tab",
        "Description[ca]": "Canvia ràpidament de document amb el comportament d'Alt+Tab",
        "Description[cs]": "Rychlé přepínání dokumentů s chováním jako ALT+Tab",
        "Description[de]": "Schnellwechsler für Dokumente mit Alt+Tabulator",
        "Description[el]": "Γρήγορη εναλλαγή εγγράφων με συμπεριφορά Alt+Tab",
        "Description[en_GB]": "Quick document switching with Alt+Tab behaviour",
        "Description[eo]": "Rapida ŝanĝado de dokumentoj kun Alt+Tab konduto",
        "Description[es]": "Cambio rápido de documento al estilo de Alt+Tab",
        "Description[eu]": "Dokumentu artean azkar aldatzea Alt+Tab jokabidearekin",
        "Description[fi]": "Nopea tiedostonvaihto Alt+Sarkaimen tapaan",
        "Description[fr]": "Commutateur rapide de documents utilisant le comportement de la combinaison « ALT » + « TAB »",
        "Description[gl]": "Comportamento de alternancia rápida entre documentos mediante Alt+Tab.",
        "Description[hu]": "Gyors dokumentumváltás az Alt+Tab működésével",
        "Description[ia]": "Comportamento de Commutation rapide de documento con ALT+Tab",
        "Description[ie]": "Rapid alteration de documentes quam Alt+Tab",
        "Description[it]": "Cambio rapido dei documenti con Alt+Tab",
        "Description[ka]": "დოკუმენტების სწრაფი გადართვა Alt+Tab-ით",
        "Description[ko]": "Alt+Tab과 비슷하게 작동하는 빠른 문서 전환기",
        "Description[nl]": "Snel van document wisselen met Alt+Tab",
        "Description[pl]": "Szybkie przełączanie dokumentów przy użyciu klawiszy Alt+Tab",
        "Description[pt]": "Selecção rápida de documentos com o comportamento do Alt+Tab",
        "Description[ru]": "Быстрое переключение между документами (поведение соответствует Alt+Tab)",
        "Description[sk]": "Rýchle prepínanie dokumentov pomocou Alt+Tab",
        "Description[sl]": "Hitri preklop med dokumenti z obnašanjem Alt+Tab",
        "Description[sv]": "Snabbt dokumentbyte med Alt+Tabulator beteende",
        "Description[ta]": "Alt+Tab போல ஆவணங்களுக்கிடையே விரைவாகத் தாவலாம்",
        "Description[tr]": "Seçenek+Sekme davranışı ile tez belge değiştirme",
        "Description[uk]": "Поведінка швидкого перемикача між документами за Alt+Tab",
        "Description[vi]": "Chuyển tài liệu nhanh với hành vi theo kiểu Alt+Tab",
        "Description[x-test]": "xxQuick document switching with Alt+Tab behaviorxx",
        "Description[zh_CN]": "使用 Alt+Tab 快速切换文档",
        "Description[zh_TW]": "行為如同 Alt+Tab 的快速文件切換",
        "Name": "Document Switcher",
        "Name[ar]": "مبدّل المستندات",
        "Name[az]": "Sənəd dəyişdricisi",
        "Name[bg]": "Бързо превключване на документи",
        "Name[ca@valencia]": "Commutador de documents",
        "Name[ca]": "Commutador de documents",
        "Name[cs]": "Přepínač dokumentů ",
        "Name[de]": "Dokumentumschalter",
        "Name[el]": "Εργαλείο εναλλαγής εγγράφων",
        "Name[en_GB]": "Document Switcher",
        "Name[eo]": "Dokumentŝanĝilo",
        "Name[es]": "Selector de documentos",
        "Name[eu]": "Dokumentu-aldatzailea",
        "Name[fi]": "Tiedostovaihto",
        "Name[fr]": "Commutateur de documents",
        "Name[gl]": "Alternador de documentos",
        "Name[hu]": "Dokumentumváltó",
        "Name[ia]": "Commutator de documento",
        "Name[ie]": "Cambiar documentes",
        "Name[it]": "Selettore di documenti",
        "Name[ka]": "დოკუმენტის გადამრთველი",
        "Name[ko]": "문서 전환기",
        "Name[my]": "မှတ်တမ်းပုံနှိပ်မူ ပြောင်းလဲကိရိယာ",
        "Name[nl]": "Documentenwisselaar",
        "Name[pl]": "Przełącznik dokumentów",
        "Name[pt]": "Selector de Documentos",
        "Name[pt_BR]": "Seletor de documentos",
        "Name[ru]": "Переключатель документов",
        "Name[sk]": "Prepínač dokumentov",
        "Name[sl]": "Preklopnik dokumenta",
        "Name[sv]": "Dokumentbyte",
        "Name[ta]": "ஆவண மாற்றி",
        "Name[tr]": "Belge Değiştiricisi",
        "Name[uk]": "Перемикач між документами",
        "Name[vi]": "Trình chuyển tài liệu",
        "Name[x-test]": "xxDocument Switcherxx",
        "Name[zh_CN]": "文档切换器",
        "Name[zh_TW]": "文件切換器",
        "ServiceTypes": [
            "KTextEditor/Plugin"
        ]
    }
}
